previs/mini_avr_01_simulation/mini_avr_01_tb.vcd
$date
  Thu May 26 08:46:35 2016
$end
$version
  GHDL v0
$end
$timescale
  1 fs
$end
$var reg 1 ! clk $end
$var reg 1 " reset $end
$var reg 8 # r16[7:0] $end
$var reg 8 $ r17[7:0] $end
$var reg 8 % r18[7:0] $end
$var reg 8 & r19[7:0] $end
$scope module dut $end
$var reg 1 ' clk $end
$var reg 1 ( reset $end
$var reg 8 ) r16[7:0] $end
$var reg 8 * r17[7:0] $end
$var reg 8 + r18[7:0] $end
$var reg 8 , r19[7:0] $end
$var reg 1 - reg_we $end
$var reg 8 . nx_reg[7:0] $end
$var reg 4 / r_reg[3:0] $end
$var reg 4 0 d_reg[3:0] $end
$var reg 8 1 alu_in_a[7:0] $end
$var reg 8 2 alu_in_b[7:0] $end
$var reg 16 3 pr_op[15:0] $end
$var reg 8 4 pr_pc[7:0] $end
$var reg 8 5 k[7:0] $end
$var reg 3 6 alu_op[2:0] $end
$var reg 8 7 alu_out[7:0] $end
$var reg 1 8 debug_carry $end
$var reg 1 9 debug_zero $end
$var reg 10 : add_temp[9:0] $end
$var reg 8 ; nx_pc[7:0] $end
$var reg 8 < k_jmp[7:0] $end
$var reg 1 = update_z $end
$var reg 4 > c_r16[3:0] $end
$var reg 4 ? c_r17[3:0] $end
$var reg 4 @ c_r18[3:0] $end
$var reg 4 A c_r19[3:0] $end
$var reg 4 B c_r20[3:0] $end
$var reg 4 C c_r21[3:0] $end
$var reg 4 D c_r22[3:0] $end
$var reg 1 E port_we $end
$var reg 8 F in_data[7:0] $end
$var reg 8 G timer_count[7:0] $end
$var reg 8 H presc_count[7:0] $end
$var reg 8 I timer_state[7:0] $end
$var reg 4 J port_adr[3:0] $end
$var reg 1 K presc_tc $end
$var reg 8 L port_a8i[7:0] $end
$var reg 8 M port_a9i[7:0] $end
$var reg 8 N timer_limit[7:0] $end
$comment regs is not handled $end
$comment out_mux is not handled $end
$comment pr_sr is not handled $end
$comment nx_sr is not handled $end
$upscope $end
$enddefinitions $end
#0
0!
0"
bUUUUUUUU #
bUUUUUUUU $
bUUUUUUUU %
bUUUUUUUU &
0'
0(
bUUUUUUUU )
bUUUUUUUU *
bUUUUUUUU +
bUUUUUUUU ,
1-
b00111001 .
b---- /
b0000 0
bUUUUUUUU 1
bUUUUUUUU 2
b1110001100001001 3
b00000000 4
b00111001 5
b--- 6
b-------- 7
U8
U9
b0000000000 :
b00000001 ;
b00000000 <
1=
b0000 >
b0001 ?
b0010 @
b0011 A
b0100 B
b0101 C
b0110 D
0E
b00000000 F
b00000000 G
b00000000 H
b00000000 I
b0000 J
0K
b00000000 L
b00000000 M
b00000000 N
#10000000
1"
1(
08
09
#20000000
#30000000
#40000000
1!
0"
b00111001 #
1'
0(
b00111001 )
b0001 0
bUUUUUUUU 1
b00111001 2
b1110001100011001 3
b00000001 4
U9
b00000010 ;
b00000001 H
#50000000
0!
0'
#60000000
1!
b00111001 $
1'
b00111001 *
b0010 0
bUUUUUUUU 1
b1110001100101001 3
b00000010 4
b00000011 ;
b00000010 H
1K
#70000000
0!
0'
#80000000
1!
b00111001 %
1'
b00111001 +
b0011 0
bUUUUUUUU 1
b1110001100111001 3
b00000011 4
b00000100 ;
b00000000 H
0K
#90000000
0!
0'
#100000000
1!
b00111001 &
1'
b00111001 ,
b00000000 .
b0100 0
bUUUUUUUU 1
b1110000001000000 3
b00000100 4
b00000000 5
b00000101 ;
b00000001 H
#110000000
0!
0'
#120000000
1!
1'
b10101010 .
b0110 0
bUUUUUUUU 1
b1110101001101010 3
b00000101 4
b10101010 5
b00000110 ;
b00000010 H
1K
#130000000
0!
0'
#140000000
1!
1'
0-
b-------- .
b0110 /
b---- 0
b00111001 1
b10101010 2
b1011100001101010 3
b00000110 4
b-------- 5
b00000111 ;
1E
b00000000 H
b1010 J
0K
#150000000
0!
0'
#160000000
1!
1'
1-
b00000001 .
b---- /
b0101 0
bUUUUUUUU 1
b00111001 2
b1011000001010010 3
b00000111 4
b00001000 ;
0E
b00000001 F
b00000001 I
b10101010 N
#170000000
0!
0'
#180000000
1!
1'
b---- 0
b00111001 1
b0010100001010100 3
b00001000 4
b100 6
b00111001 7
b00001001 ;
b00000001 H
#190000000
0!
0'
#200000000
1!
b00000001 #
1'
b00000001 )
0-
b00000001 1
b00000001 2
b0011011111101001 3
b00001001 4
b--- 6
b-------- 7
b00001010 ;
b00000010 H
1K
#210000000
0!
0'
#220000000
1!
1'
1-
b00111100 .
b0000 0
b1110001100001100 3
b00001010 4
b00111100 5
b00001011 ;
b00000001 G
b00000000 H
0K
#230000000
0!
0'
#240000000
1!
b00111100 #
1'
b00111100 )
b0001 0
b00111001 1
b00111100 2
b1110001100011100 3
b00001011 4
b00001100 ;
b00000001 H
#250000000
0!
0'
#260000000
1!
b00111100 $
1'
b00111100 *
b0010 0
b00111001 1
b1110001100101100 3
b00001100 4
b00001101 ;
b00000010 H
1K
#270000000
0!
0'
#280000000
1!
b00111100 %
1'
b00111100 +
b0011 0
b00111001 1
b1110001100111100 3
b00001101 4
b00001110 ;
b00000010 G
b00000000 H
0K
#290000000
0!
0'
#300000000
1!
b00111100 &
1'
b00111100 ,
b01010101 .
b0110 0
b10101010 1
b1110010101100101 3
b00001110 4
b01010101 5
b00001111 ;
b00000001 H
#310000000
0!
0'
#320000000
1!
1'
0-
b-------- .
b0110 /
b---- 0
b00111100 1
b01010101 2
b1011100001101010 3
b00001111 4
b-------- 5
b00010000 ;
1E
b00000010 H
1K
#330000000
0!
0'
#340000000
1!
1'
1-
b00000001 .
b---- /
b0101 0
b00000001 1
b00111100 2
b1011000001010010 3
b00010000 4
b00010001 ;
0E
b00000000 G
b00000000 H
0K
b01010101 N
#350000000
0!
0'
#360000000
1!
1'
b---- 0
b00111100 1
b0010100001010100 3
b00010001 4
b100 6
b00111100 7
b00010010 ;
b00000001 H
#370000000
0!
0'
#380000000
1!
b00000001 #
1'
b00000001 )
0-
b00000001 1
b00000001 2
b0011011111101001 3
b00010010 4
b--- 6
b-------- 7
b00010011 ;
b00000010 H
1K
#390000000
0!
0'
#400000000
1!
1'
1-
b00111110 .
b0000 0
b1110001100001110 3
b00010011 4
b00111110 5
b00010100 ;
b00000001 G
b00000000 H
0K
#410000000
0!
0'
#420000000
1!
b00111110 #
1'
b00111110 )
b0001 0
b00111100 1
b00111110 2
b1110001100011110 3
b00010100 4
b00010101 ;
b00000001 H
#430000000
0!
0'
#440000000
1!
b00111110 $
1'
b00111110 *
b0010 0
b00111100 1
b1110001100101110 3
b00010101 4
b00010110 ;
b00000010 H
1K
#450000000
0!
0'
#460000000
1!
b00111110 %
1'
b00111110 +
b0011 0
b00111100 1
b1110001100111110 3
b00010110 4
b00010111 ;
b00000010 G
b00000000 H
0K
#470000000
0!
0'
#480000000
1!
b00111110 &
1'
b00111110 ,
b10101010 .
b0110 0
b01010101 1
b1110101001101010 3
b00010111 4
b10101010 5
b00011000 ;
b00000001 H
#490000000
0!
0'
#500000000
1!
1'
0-
b-------- .
b0110 /
b---- 0
b00111110 1
b10101010 2
b1011100001101010 3
b00011000 4
b-------- 5
b00011001 ;
1E
b00000010 H
1K
#510000000
0!
0'
#520000000
1!
1'
1-
b00000001 .
b---- /
b0101 0
b00000001 1
b00111110 2
b1011000001010010 3
b00011001 4
b00011010 ;
0E
b00000000 G
b00000000 H
0K
b10101010 N
#530000000
0!
0'
#540000000
1!
1'
b---- 0
b00111110 1
b0010100001010100 3
b00011010 4
b100 6
b00111110 7
b00011011 ;
b00000001 H
#550000000
0!
0'
#560000000
1!
b00000001 #
1'
b00000001 )
0-
b00000001 1
b00000001 2
b0011011111101001 3
b00011011 4
b--- 6
b-------- 7
b00011100 ;
b00000010 H
1K
#570000000
0!
0'
#580000000
1!
1'
1-
b01001011 .
b0000 0
b1110010000001011 3
b00011100 4
b01001011 5
b00011101 ;
b00000001 G
b00000000 H
0K
#590000000
0!
0'
#600000000
1!
b01001011 #
1'
b01001011 )
b0001 0
b00111110 1
b01001011 2
b1110010000011011 3
b00011101 4
b00011110 ;
b00000001 H
#610000000
0!
0'
#620000000
1!
b01001011 $
1'
b01001011 *
b0010 0
b00111110 1
b1110010000101011 3
b00011110 4
b00011111 ;
b00000010 H
1K
#630000000
0!
0'
#640000000
1!
b01001011 %
1'
b01001011 +
b0011 0
b00111110 1
b1110010000111011 3
b00011111 4
b00100000 ;
b00000010 G
b00000000 H
0K
#650000000
0!
0'
#660000000
1!
b01001011 &
1'
b01001011 ,
b01010101 .
b0110 0
b10101010 1
b1110010101100101 3
b00100000 4
b01010101 5
b00100001 ;
b00000001 H
#670000000
0!
0'
#680000000
1!
1'
0-
b-------- .
b0110 /
b---- 0
b01001011 1
b01010101 2
b1011100001101010 3
b00100001 4
b-------- 5
b00100010 ;
1E
b00000010 H
1K
#690000000
0!
0'
#700000000
1!
1'
1-
b00000001 .
b---- /
b0101 0
b00000001 1
b01001011 2
b1011000001010010 3
b00100010 4
b00100011 ;
0E
b00000000 G
b00000000 H
0K
b01010101 N
#710000000
0!
0'
#720000000
1!
1'
b---- 0
b01001011 1
b0010100001010100 3
b00100011 4
b100 6
b01001011 7
b00100100 ;
b00000001 H
#730000000
0!
0'
#740000000
1!
b00000001 #
1'
b00000001 )
0-
b00000001 1
b00000001 2
b0011011111101001 3
b00100100 4
b--- 6
b-------- 7
b00100101 ;
b00000010 H
1K
#750000000
0!
0'
#760000000
1!
1'
1-
b00111001 .
b0000 0
b1110001100001001 3
b00100101 4
b00111001 5
b00100110 ;
b00000001 G
b00000000 H
0K
#770000000
0!
0'
#780000000
1!
b00111001 #
1'
b00111001 )
b0001 0
b01001011 1
b00111001 2
b1110001100011001 3
b00100110 4
b00100111 ;
b00000001 H
#790000000
0!
0'
#800000000
1!
b00111001 $
1'
b00111001 *
b0010 0
b01001011 1
b1110001100101001 3
b00100111 4
b00101000 ;
b00000010 H
1K
#810000000
0!
0'
#820000000
1!
b00111001 %
1'
b00111001 +
b0011 0
b01001011 1
b1110001100111001 3
b00101000 4
b00101001 ;
b00000010 G
b00000000 H
0K
#830000000
0!
0'
#840000000
1!
b00111001 &
1'
b00111001 ,
b10101010 .
b0110 0
b01010101 1
b1110101001101010 3
b00101001 4
b10101010 5
b00101010 ;
b00000001 H
#850000000
0!
0'
#860000000
1!
1'
0-
b-------- .
b0110 /
b---- 0
b00111001 1
b10101010 2
b1011100001101010 3
b00101010 4
b-------- 5
b00101011 ;
1E
b00000010 H
1K
#870000000
0!
0'
#880000000
1!
1'
1-
b00000001 .
b---- /
b0101 0
b00000001 1
b00111001 2
b1011000001010010 3
b00101011 4
b00101100 ;
0E
b00000000 G
b00000000 H
0K
b10101010 N
#890000000
0!
0'
#900000000
1!
1'
b---- 0
b00111001 1
b0010100001010100 3
b00101100 4
b100 6
b00111001 7
b00101101 ;
b00000001 H
#910000000
0!
0'
#920000000
1!
b00000001 #
1'
b00000001 )
0-
b00000001 1
b00000001 2
b0011011111101001 3
b00101101 4
b--- 6
b-------- 7
b00101110 ;
b00000010 H
1K
#930000000
0!
0'
#940000000
1!
1'
1-
b00111011 .
b0000 0
b1110001100001011 3
b00101110 4
b00111011 5
b00101111 ;
b00000001 G
b00000000 H
0K
#950000000
0!
0'
#960000000
1!
b00111011 #
1'
b00111011 )
b0001 0
b00111001 1
b00111011 2
b1110001100011011 3
b00101111 4
b00110000 ;
b00000001 H
#970000000
0!
0'
#980000000
1!
b00111011 $
1'
b00111011 *
b0010 0
b00111001 1
b1110001100101011 3
b00110000 4
b00110001 ;
b00000010 H
1K
#990000000
0!
0'
#1000000000
1!
b00111011 %
1'
b00111011 +
b0011 0
b00111001 1
b1110001100111011 3
b00110001 4
b00110010 ;
b00000010 G
b00000000 H
0K
#1010000000
0!
0'
#1020000000
1!
b00111011 &
1'
b00111011 ,
b10101010 .
b0110 0
b10101010 1
b1110101001101010 3
b00110010 4
b10101010 5
b00110011 ;
b00000001 H
#1030000000
0!
0'
#1040000000
1!
1'
0-
b-------- .
b0110 /
b---- 0
b00111011 1
b10101010 2
b1011100001101010 3
b00110011 4
b-------- 5
b00110100 ;
1E
b00000010 H
1K
#1050000000
0!
0'
#1060000000
1!
1'
1-
b00000001 .
b---- /
b0101 0
b00000001 1
b00111011 2
b1011000001010010 3
b00110100 4
b00110101 ;
0E
b00000000 G
b00000000 H
0K
#1070000000
0!
0'
#1080000000
1!
1'
b---- 0
b00111011 1
b0010100001010100 3
b00110101 4
b100 6
b00111011 7
b00110110 ;
b00000001 H
#1090000000
0!
0'
#1100000000
1!
b00000001 #
1'
b00000001 )
0-
b00000001 1
b00000001 2
b0011011111101001 3
b00110110 4
b--- 6
b-------- 7
b00110111 ;
b00000010 H
1K
#1110000000
0!
0'
#1120000000
1!
1'
1-
b00111110 .
b0000 0
b1110001100001110 3
b00110111 4
b00111110 5
b00111000 ;
b00000001 G
b00000000 H
0K
#1130000000
0!
0'
#1140000000
1!
b00111110 #
1'
b00111110 )
b0001 0
b00111011 1
b00111110 2
b1110001100011110 3
b00111000 4
b00111001 ;
b00000001 H
#1150000000
0!
0'
#1160000000
1!
b00111110 $
1'
b00111110 *
b0010 0
b00111011 1
b1110001100101110 3
b00111001 4
b00111010 ;
b00000010 H
1K
#1170000000
0!
0'
#1180000000
1!
b00111110 %
1'
b00111110 +
b0011 0
b00111011 1
b1110001100111110 3
b00111010 4
b00111011 ;
b00000010 G
b00000000 H
0K
#1190000000
0!
0'
#1200000000
1!
b00111110 &
1'
b00111110 ,
b10101010 .
b0110 0
b10101010 1
b1110101001101010 3
b00111011 4
b10101010 5
b00111100 ;
b00000001 H
#1210000000
0!
0'
#1220000000
1!
1'
0-
b-------- .
b0110 /
b---- 0
b00111110 1
b10101010 2
b1011100001101010 3
b00111100 4
b-------- 5
b00111101 ;
1E
b00000010 H
1K
#1230000000
0!
0'
#1240000000
1!
1'
1-
b00000001 .
b---- /
b0101 0
b00000001 1
b00111110 2
b1011000001010010 3
b00111101 4
b00111110 ;
0E
b00000000 G
b00000000 H
0K
#1250000000
0!
0'
#1260000000
1!
1'
b---- 0
b00111110 1
b0010100001010100 3
b00111110 4
b100 6
b00111110 7
b00111111 ;
b00000001 H
#1270000000
0!
0'
#1280000000
1!
b00000001 #
1'
b00000001 )
0-
b00000001 1
b00000001 2
b0011011111101001 3
b00111111 4
b--- 6
b-------- 7
b01000000 ;
b00000010 H
1K
#1290000000
0!
0'
#1300000000
1!
1'
1-
b01000000 .
b0000 0
b1110010000000000 3
b01000000 4
b01000000 5
b01000001 ;
b00000001 G
b00000000 H
0K
#1310000000
0!
0'
#1320000000
1!
b01000000 #
1'
b01000000 )
b0001 0
b00111110 1
b01000000 2
b1110010000010000 3
b01000001 4
b01000010 ;
b00000001 H
#1330000000
0!
0'
#1340000000
1!
b01000000 $
1'
b01000000 *
b0010 0
b00111110 1
b1110010000100000 3
b01000010 4
b01000011 ;
b00000010 H
1K
#1350000000
0!
0'
#1360000000
1!
b01000000 %
1'
b01000000 +
b0011 0
b00111110 1
b1110010000110000 3
b01000011 4
b01000100 ;
b00000010 G
b00000000 H
0K
#1370000000
0!
0'
#1380000000
1!
b01000000 &
1'
b01000000 ,
b10101010 .
b0110 0
b10101010 1
b1110101001101010 3
b01000100 4
b10101010 5
b01000101 ;
b00000001 H
#1390000000
0!
0'
#1400000000
1!
1'
0-
b-------- .
b0110 /
b---- 0
b01000000 1
b10101010 2
b1011100001101010 3
b01000101 4
b-------- 5
b01000110 ;
1E
b00000010 H
1K
#1410000000
0!
0'
#1420000000
1!
1'
1-
b00000001 .
b---- /
b0101 0
b00000001 1
b01000000 2
b1011000001010010 3
b01000110 4
b01000111 ;
0E
b00000000 G
b00000000 H
0K
#1430000000
0!
0'
#1440000000
1!
1'
b---- 0
b01000000 1
b0010100001010100 3
b01000111 4
b100 6
b01000000 7
b01001000 ;
b00000001 H
#1450000000
0!
0'
#1460000000
1!
b00000001 #
1'
b00000001 )
0-
b00000001 1
b00000001 2
b0011011111101001 3
b01001000 4
b--- 6
b-------- 7
b01001001 ;
b00000010 H
1K
#1470000000
0!
0'
#1480000000
1!
1'
1-
b01001100 .
b0000 0
b1110010000001100 3
b01001001 4
b01001100 5
b01001010 ;
b00000001 G
b00000000 H
0K
#1490000000
0!
0'
#1500000000
1!
b01001100 #
1'
b01001100 )
b0001 0
b01000000 1
b01001100 2
b1110010000011100 3
b01001010 4
b01001011 ;
b00000001 H
#1510000000
0!
0'
#1520000000
1!
b01001100 $
1'
b01001100 *
b0010 0
b01000000 1
b1110010000101100 3
b01001011 4
b01001100 ;
b00000010 H
1K
#1530000000
0!
0'
#1540000000
1!
b01001100 %
1'
b01001100 +
b0011 0
b01000000 1
b1110010000111100 3
b01001100 4
b01001101 ;
b00000010 G
b00000000 H
0K
#1550000000
0!
0'
#1560000000
1!
b01001100 &
1'
b01001100 ,
b10101010 .
b0110 0
b10101010 1
b1110101001101010 3
b01001101 4
b10101010 5
b01001110 ;
b00000001 H
#1570000000
0!
0'
#1580000000
1!
1'
0-
b-------- .
b0110 /
b---- 0
b01001100 1
b10101010 2
b1011100001101010 3
b01001110 4
b-------- 5
b01001111 ;
1E
b00000010 H
1K
#1590000000
0!
0'
#1600000000
1!
1'
1-
b00000001 .
b---- /
b0101 0
b00000001 1
b01001100 2
b1011000001010010 3
b01001111 4
b01010000 ;
0E
b00000000 G
b00000000 H
0K
#1610000000
0!
0'
#1620000000
1!
1'
b---- 0
b01001100 1
b0010100001010100 3
b01010000 4
b100 6
b01001100 7
b01010001 ;
b00000001 H
#1630000000
0!
0'
#1640000000
1!
b00000001 #
1'
b00000001 )
0-
b00000001 1
b00000001 2
b0011011111101001 3
b01010001 4
b--- 6
b-------- 7
b01010010 ;
b00000010 H
1K
#1650000000
0!
0'
#1660000000
1!
1'
1-
b00111011 .
b0000 0
b1110001100001011 3
b01010010 4
b00111011 5
b01010011 ;
b00000001 G
b00000000 H
0K
#1670000000
0!
0'
#1680000000
1!
b00111011 #
1'
b00111011 )
b0001 0
b01001100 1
b00111011 2
b1110001100011011 3
b01010011 4
b01010100 ;
b00000001 H
#1690000000
0!
0'
#1700000000
1!
b00111011 $
1'
b00111011 *
b0010 0
b01001100 1
b1110001100101011 3
b01010100 4
b01010101 ;
b00000010 H
1K
#1710000000
0!
0'
#1720000000
1!
b00111011 %
1'
b00111011 +
b0011 0
b01001100 1
b1110001100111011 3
b01010101 4
b01010110 ;
b00000010 G
b00000000 H
0K
#1730000000
0!
0'
#1740000000
1!
b00111011 &
1'
b00111011 ,
b10101010 .
b0110 0
b10101010 1
b1110101001101010 3
b01010110 4
b10101010 5
b01010111 ;
b00000001 H
#1750000000
0!
0'
#1760000000
1!
1'
0-
b-------- .
b0110 /
b---- 0
b00111011 1
b10101010 2
b1011100001101010 3
b01010111 4
b-------- 5
b01011000 ;
1E
b00000010 H
1K
#1770000000
0!
0'
#1780000000
1!
1'
1-
b00000001 .
b---- /
b0101 0
b00000001 1
b00111011 2
b1011000001010010 3
b01011000 4
b01011001 ;
0E
b00000000 G
b00000000 H
0K
#1790000000
0!
0'
#1800000000
1!
1'
b---- 0
b00111011 1
b0010100001010100 3
b01011001 4
b100 6
b00111011 7
b01011010 ;
b00000001 H
#1810000000
0!
0'
#1820000000
1!
b00000001 #
1'
b00000001 )
0-
b00000001 1
b00000001 2
b0011011111101001 3
b01011010 4
b--- 6
b-------- 7
b01011011 ;
b00000010 H
1K
#1830000000
0!
0'
#1840000000
1!
1'
1-
b01000011 .
b0000 0
b1110010000000011 3
b01011011 4
b01000011 5
b01011100 ;
b00000001 G
b00000000 H
0K
#1850000000
0!
0'
#1860000000
1!
b01000011 #
1'
b01000011 )
b0001 0
b00111011 1
b01000011 2
b1110010000010011 3
b01011100 4
b01011101 ;
b00000001 H
#1870000000
0!
0'
#1880000000
1!
b01000011 $
1'
b01000011 *
b0010 0
b00111011 1
b1110010000100011 3
b01011101 4
b01011110 ;
b00000010 H
1K
#1890000000
0!
0'
#1900000000
1!
b01000011 %
1'
b01000011 +
b0011 0
b00111011 1
b1110010000110011 3
b01011110 4
b01011111 ;
b00000010 G
b00000000 H
0K
#1910000000
0!
0'
#1920000000
1!
b01000011 &
1'
b01000011 ,
b10101010 .
b0110 0
b10101010 1
b1110101001101010 3
b01011111 4
b10101010 5
b01100000 ;
b00000001 H
#1930000000
0!
0'
#1940000000
1!
1'
0-
b-------- .
b0110 /
b---- 0
b01000011 1
b10101010 2
b1011100001101010 3
b01100000 4
b-------- 5
b01100001 ;
1E
b00000010 H
1K
#1950000000
0!
0'
#1960000000
1!
1'
1-
b00000001 .
b---- /
b0101 0
b00000001 1
b01000011 2
b1011000001010010 3
b01100001 4
b01100010 ;
0E
b00000000 G
b00000000 H
0K
#1970000000
0!
0'
#1980000000
1!
1'
b---- 0
b01000011 1
b0010100001010100 3
b01100010 4
b100 6
b01000011 7
b01100011 ;
b00000001 H
#1990000000
0!
0'
#2000000000
1!
b00000001 #
1'
b00000001 )
0-
b00000001 1
b00000001 2
b0011011111101001 3
b01100011 4
b--- 6
b-------- 7
b01100100 ;
b00000010 H
1K
#2010000000
0!
0'
#2020000000
1!
1'
1-
b01001011 .
b0000 0
b1110010000001011 3
b01100100 4
b01001011 5
b01100101 ;
b00000001 G
b00000000 H
0K
#2030000000
0!
0'
#2040000000
1!
b01001011 #
1'
b01001011 )
b0001 0
b01000011 1
b01001011 2
b1110010000011011 3
b01100101 4
b01100110 ;
b00000001 H
#2050000000
0!
0'
#2060000000
1!
b01001011 $
1'
b01001011 *
b0010 0
b01000011 1
b1110010000101011 3
b01100110 4
b01100111 ;
b00000010 H
1K
#2070000000
0!
0'
#2080000000
1!
b01001011 %
1'
b01001011 +
b0011 0
b01000011 1
b1110010000111011 3
b01100111 4
b01101000 ;
b00000010 G
b00000000 H
0K
#2090000000
0!
0'
#2100000000
1!
b01001011 &
1'
b01001011 ,
b10101010 .
b0110 0
b10101010 1
b1110101001101010 3
b01101000 4
b10101010 5
b01101001 ;
b00000001 H
#2110000000
0!
0'
#2120000000
1!
1'
0-
b-------- .
b0110 /
b---- 0
b01001011 1
b10101010 2
b1011100001101010 3
b01101001 4
b-------- 5
b01101010 ;
1E
b00000010 H
1K
#2130000000
0!
0'
#2140000000
1!
1'
1-
b00000001 .
b---- /
b0101 0
b00000001 1
b01001011 2
b1011000001010010 3
b01101010 4
b01101011 ;
0E
b00000000 G
b00000000 H
0K
#2150000000
0!
0'
#2160000000
1!
1'
b---- 0
b01001011 1
b0010100001010100 3
b01101011 4
b100 6
b01001011 7
b01101100 ;
b00000001 H
#2170000000
0!
0'
#2180000000
1!
b00000001 #
1'
b00000001 )
0-
b00000001 1
b00000001 2
b0011011111101001 3
b01101100 4
b--- 6
b-------- 7
b01101101 ;
b00000010 H
1K
#2190000000
0!
0'
#2200000000
1!
1'
1-
b01000011 .
b0000 0
b1110010000000011 3
b01101101 4
b01000011 5
b01101110 ;
b00000001 G
b00000000 H
0K
#2210000000
0!
0'
#2220000000
1!
b01000011 #
1'
b01000011 )
b0001 0
b01001011 1
b01000011 2
b1110010000010011 3
b01101110 4
b01101111 ;
b00000001 H
#2230000000
0!
0'
#2240000000
1!
b01000011 $
1'
b01000011 *
b0010 0
b01001011 1
b1110010000100011 3
b01101111 4
b01110000 ;
b00000010 H
1K
#2250000000
0!
0'
#2260000000
1!
b01000011 %
1'
b01000011 +
b0011 0
b01001011 1
b1110010000110011 3
b01110000 4
b01110001 ;
b00000010 G
b00000000 H
0K
#2270000000
0!
0'
#2280000000
1!
b01000011 &
1'
b01000011 ,
b10101010 .
b0110 0
b10101010 1
b1110101001101010 3
b01110001 4
b10101010 5
b01110010 ;
b00000001 H
#2290000000
0!
0'
#2300000000
1!
1'
0-
b-------- .
b0110 /
b---- 0
b01000011 1
b10101010 2
b1011100001101010 3
b01110010 4
b-------- 5
b01110011 ;
1E
b00000010 H
1K
#2310000000
0!
0'
#2320000000
1!
1'
1-
b00000001 .
b---- /
b0101 0
b00000001 1
b01000011 2
b1011000001010010 3
b01110011 4
b01110100 ;
0E
b00000000 G
b00000000 H
0K
#2330000000
0!
0'
#2340000000
1!
1'
b---- 0
b01000011 1
b0010100001010100 3
b01110100 4
b100 6
b01000011 7
b01110101 ;
b00000001 H
#2350000000
0!
0'
#2360000000
1!
b00000001 #
1'
b00000001 )
0-
b00000001 1
b00000001 2
b0011011111101001 3
b01110101 4
b--- 6
b-------- 7
b01110110 ;
b00000010 H
1K
#2370000000
0!
0'
#2380000000
1!
1'
1-
b01001011 .
b0000 0
b1110010000001011 3
b01110110 4
b01001011 5
b01110111 ;
b00000001 G
b00000000 H
0K
#2390000000
0!
0'
#2400000000
1!
b01001011 #
1'
b01001011 )
b0001 0
b01000011 1
b01001011 2
b1110010000011011 3
b01110111 4
b01111000 ;
b00000001 H
#2410000000
0!
0'
#2420000000
1!
b01001011 $
1'
b01001011 *
b0010 0
b01000011 1
b1110010000101011 3
b01111000 4
b01111001 ;
b00000010 H
1K
#2430000000
0!
0'
#2440000000
1!
b01001011 %
1'
b01001011 +
b0011 0
b01000011 1
b1110010000111011 3
b01111001 4
b01111010 ;
b00000010 G
b00000000 H
0K
#2450000000
0!
0'
#2460000000
1!
b01001011 &
1'
b01001011 ,
b10101010 .
b0110 0
b10101010 1
b1110101001101010 3
b01111010 4
b10101010 5
b01111011 ;
b00000001 H
#2470000000
0!
0'
#2480000000
1!
1'
0-
b-------- .
b0110 /
b---- 0
b01001011 1
b10101010 2
b1011100001101010 3
b01111011 4
b-------- 5
b01111100 ;
1E
b00000010 H
1K
#2490000000
0!
0'
#2500000000
1!
1'
1-
b00000001 .
b---- /
b0101 0
b00000001 1
b01001011 2
b1011000001010010 3
b01111100 4
b01111101 ;
0E
b00000000 G
b00000000 H
0K
#2510000000
0!
0'
#2520000000
1!
1'
b---- 0
b01001011 1
b0010100001010100 3
b01111101 4
b100 6
b01001011 7
b01111110 ;
b00000001 H
#2530000000
0!
0'
#2540000000
1!
b00000001 #
1'
b00000001 )
0-
b00000001 1
b00000001 2
b0011011111101001 3
b01111110 4
b--- 6
b-------- 7
b01111111 ;
b00000010 H
1K
#2550000000
0!
0'
#2560000000
1!
1'
1-
b00111110 .
b0000 0
b1110001100001110 3
b01111111 4
b00111110 5
b10000000 ;
b00000001 G
b00000000 H
0K
#2570000000
0!
0'
#2580000000
1!
b00111110 #
1'
b00111110 )
b0001 0
b01001011 1
b00111110 2
b1110001100011110 3
b10000000 4
b10000001 ;
b00000001 H
#2590000000
0!
0'
#2600000000
1!
b00111110 $
1'
b00111110 *
b0010 0
b01001011 1
b1110001100101110 3
b10000001 4
b10000010 ;
b00000010 H
1K
#2610000000
0!
0'
#2620000000
1!
b00111110 %
1'
b00111110 +
b0011 0
b01001011 1
b1110001100111110 3
b10000010 4
b10000011 ;
b00000010 G
b00000000 H
0K
#2630000000
0!
0'
#2640000000
1!
b00111110 &
1'
b00111110 ,
b10101010 .
b0110 0
b10101010 1
b1110101001101010 3
b10000011 4
b10101010 5
b10000100 ;
b00000001 H
#2650000000
0!
0'
#2660000000
1!
1'
0-
b-------- .
b0110 /
b---- 0
b00111110 1
b10101010 2
b1011100001101010 3
b10000100 4
b-------- 5
b10000101 ;
1E
b00000010 H
1K
#2670000000
0!
0'
#2680000000
1!
1'
1-
b00000001 .
b---- /
b0101 0
b00000001 1
b00111110 2
b1011000001010010 3
b10000101 4
b10000110 ;
0E
b00000000 G
b00000000 H
0K
#2690000000
0!
0'
#2700000000
1!
1'
b---- 0
b00111110 1
b0010100001010100 3
b10000110 4
b100 6
b00111110 7
b10000111 ;
b00000001 H
#2710000000
0!
0'
#2720000000
1!
b00000001 #
1'
b00000001 )
0-
b00000001 1
b00000001 2
b0011011111101001 3
b10000111 4
b--- 6
b-------- 7
b10001000 ;
b00000010 H
1K
#2730000000
0!
0'
#2740000000
1!
1'
1-
b01001011 .
b0000 0
b1110010000001011 3
b10001000 4
b01001011 5
b10001001 ;
b00000001 G
b00000000 H
0K
#2750000000
0!
0'
#2760000000
1!
b01001011 #
1'
b01001011 )
b0001 0
b00111110 1
b01001011 2
b1110010000011011 3
b10001001 4
b10001010 ;
b00000001 H
#2770000000
0!
0'
#2780000000
1!
b01001011 $
1'
b01001011 *
b0010 0
b00111110 1
b1110010000101011 3
b10001010 4
b10001011 ;
b00000010 H
1K
#2790000000
0!
0'
#2800000000
1!
b01001011 %
1'
b01001011 +
b0011 0
b00111110 1
b1110010000111011 3
b10001011 4
b10001100 ;
b00000010 G
b00000000 H
0K
#2810000000
0!
0'
#2820000000
1!
b01001011 &
1'
b01001011 ,
b10101010 .
b0110 0
b10101010 1
b1110101001101010 3
b10001100 4
b10101010 5
b10001101 ;
b00000001 H
#2830000000
0!
0'
#2840000000
1!
1'
0-
b-------- .
b0110 /
b---- 0
b01001011 1
b10101010 2
b1011100001101010 3
b10001101 4
b-------- 5
b10001110 ;
1E
b00000010 H
1K
#2850000000
0!
0'
#2860000000
1!
1'
1-
b00000001 .
b---- /
b0101 0
b00000001 1
b01001011 2
b1011000001010010 3
b10001110 4
b10001111 ;
0E
b00000000 G
b00000000 H
0K
#2870000000
0!
0'
#2880000000
1!
1'
b---- 0
b01001011 1
b0010100001010100 3
b10001111 4
b100 6
b01001011 7
b10010000 ;
b00000001 H
#2890000000
0!
0'
#2900000000
1!
b00000001 #
1'
b00000001 )
0-
b00000001 1
b00000001 2
b0011011111101001 3
b10010000 4
b--- 6
b-------- 7
b10010001 ;
b00000010 H
1K
#2910000000
0!
0'
#2920000000
1!
1'
1-
b01000000 .
b0000 0
b1110010000000000 3
b10010001 4
b01000000 5
b10010010 ;
b00000001 G
b00000000 H
0K
